# Γ | <c> [mol/L] | err(c) [mol/L] | <βμ_ex> | err(βμ_ex) 
1e-4 4.45720e-01 1.29126e-03 -3.66056e-01 5.79403e-03
2e-5 1.91633e-01 4.01724e-04 -2.87280e-01 4.19263e-03
1e-5 1.32923e-01 4.26946e-04 -2.48803e-01 6.42395e-03
2e-6 5.66220e-02 2.45410e-04 -1.51492e-01 8.66836e-03
1e-6 3.93868e-02 2.26903e-04 -1.18703e-01 1.15218e-02
